<svg width="60" height="60" viewBox="0 0 60 60" fill="none" xmlns="http://www.w3.org/2000/svg">
<path d="M20.886 56.0056C20.7264 56.0067 20.5694 55.9659 20.4306 55.8872L12.2325 51.3327C12.0923 51.2533 11.9757 51.1381 11.8946 50.9989C11.8135 50.8596 11.7708 50.7014 11.7708 50.5402C11.7708 50.3791 11.8135 50.2209 11.8946 50.0816C11.9757 49.9424 12.0923 49.8272 12.2325 49.7478L20.4306 45.1933C20.5434 45.1277 20.6691 45.087 20.7991 45.0742C20.929 45.0614 21.0602 45.0767 21.1838 45.119C21.3073 45.1613 21.4203 45.2297 21.5151 45.3196C21.6099 45.4094 21.6842 45.5186 21.7331 45.6396C22.3714 47.1949 22.7024 48.8591 22.7078 50.5402C22.7028 52.2205 22.375 53.8842 21.7422 55.4409C21.6727 55.6101 21.5539 55.7545 21.4012 55.8552C21.2485 55.9559 21.0689 56.0083 20.886 56.0056ZM14.5098 50.5402L20.3395 53.783C20.6819 52.7353 20.8661 51.6423 20.886 50.5402C20.8861 49.4407 20.7202 48.3475 20.3941 47.2975L14.5098 50.5402Z" fill="#08757A"/>
<path d="M54.5887 56.0059H20.8857C20.7365 56.0061 20.5895 55.9697 20.4577 55.8998C20.3259 55.8299 20.2132 55.7287 20.1297 55.6051C20.045 55.481 19.9924 55.3378 19.9765 55.1884C19.9607 55.039 19.982 54.888 20.0386 54.7489C20.5889 53.4136 20.8765 51.9847 20.8857 50.5406C20.884 49.0965 20.5993 47.6668 20.0477 46.3322C19.9911 46.1931 19.9698 46.0421 19.9857 45.8927C20.0015 45.7433 20.0541 45.6001 20.1388 45.476C20.2215 45.3536 20.3326 45.2532 20.4628 45.1834C20.5929 45.1136 20.738 45.0765 20.8857 45.0752H54.5887C54.8303 45.0752 55.062 45.1712 55.2328 45.342C55.4037 45.5128 55.4996 45.7445 55.4996 45.9861V55.095C55.4996 55.3366 55.4037 55.5683 55.2328 55.7391C55.062 55.9099 54.8303 56.0059 54.5887 56.0059ZM22.1792 54.1841H53.6778V46.897H22.1792C22.5322 48.0792 22.7102 49.3067 22.7075 50.5406C22.7051 51.774 22.5272 53.0008 22.1792 54.1841Z" fill="#08757A"/>
<path d="M43.6581 52.3623H22.7075C22.4659 52.3623 22.2343 52.2663 22.0634 52.0955C21.8926 51.9247 21.7966 51.693 21.7966 51.4514C21.7966 51.2098 21.8926 50.9781 22.0634 50.8073C22.2343 50.6365 22.4659 50.5405 22.7075 50.5405H43.6581C43.8996 50.5405 44.1313 50.6365 44.3022 50.8073C44.473 50.9781 44.569 51.2098 44.569 51.4514C44.569 51.693 44.473 51.9247 44.3022 52.0955C44.1313 52.2663 43.8996 52.3623 43.6581 52.3623Z" fill="#08757A"/>
<path d="M48.2124 55.0948C47.9708 55.0948 47.7391 54.9988 47.5683 54.828C47.3975 54.6571 47.3015 54.4255 47.3015 54.1839V46.8967C47.3015 46.6551 47.3975 46.4235 47.5683 46.2526C47.7391 46.0818 47.9708 45.9858 48.2124 45.9858C48.454 45.9858 48.6857 46.0818 48.8565 46.2526C49.0273 46.4235 49.1233 46.6551 49.1233 46.8967V54.1839C49.1233 54.4255 49.0273 54.6571 48.8565 54.828C48.6857 54.9988 48.454 55.0948 48.2124 55.0948Z" fill="#08757A"/>
<path d="M15.6664 45.6307C15.4912 45.6304 15.3198 45.5795 15.1728 45.4842C15.0258 45.3888 14.9094 45.2531 14.8375 45.0933L4.99989 23.0588C4.50819 21.9571 4.47373 20.7052 4.90409 19.5781C5.33446 18.4509 6.19447 17.5406 7.29534 17.0469L25.6681 8.84889C25.8701 8.80553 26.0809 8.83217 26.2658 8.92443C26.4508 9.01669 26.5988 9.16909 26.6857 9.35661C26.7725 9.54412 26.7931 9.7556 26.7439 9.95632C26.6947 10.157 26.5787 10.3351 26.415 10.4612L8.04228 18.6592C7.71005 18.805 7.41019 19.0156 7.16019 19.2785C6.91019 19.5415 6.71505 19.8516 6.58617 20.1907C6.45729 20.5299 6.39724 20.8913 6.40952 21.254C6.42181 21.6166 6.50618 21.9731 6.65772 22.3028L16.4954 44.3464C16.5939 44.5663 16.6014 44.8163 16.516 45.0416C16.4306 45.267 16.2594 45.4494 16.0399 45.5488C15.9226 45.6022 15.7953 45.6301 15.6664 45.6307Z" fill="#78BEC1"/>
<path d="M16.0947 22.0112C15.9169 22.0118 15.7428 21.9604 15.5939 21.8633C15.445 21.7662 15.3278 21.6276 15.2566 21.4647C15.2081 21.3552 15.1816 21.2373 15.1787 21.1176C15.1758 20.9979 15.1965 20.8788 15.2397 20.7672C15.2828 20.6555 15.3476 20.5534 15.4302 20.4668C15.5128 20.3802 15.6117 20.3107 15.7212 20.2623L23.2087 16.9193C23.3182 16.8709 23.4361 16.8444 23.5558 16.8416C23.6754 16.8387 23.7945 16.8594 23.9061 16.9026C24.0178 16.9457 24.1199 17.0104 24.2065 17.093C24.2931 17.1756 24.3627 17.2744 24.4111 17.3839C24.4596 17.4933 24.486 17.6112 24.4888 17.7309C24.4917 17.8506 24.471 17.9696 24.4279 18.0813C24.3847 18.1929 24.32 18.295 24.2374 18.3816C24.1549 18.4683 24.056 18.5378 23.9466 18.5862L16.459 21.9292C16.3445 21.9814 16.2205 22.0093 16.0947 22.0112Z" fill="#636363"/>
<path d="M15.8212 28.1144C15.6111 28.1199 15.4056 28.0526 15.2395 27.9239C15.0734 27.7952 14.9569 27.6131 14.9097 27.4083C14.8626 27.2035 14.8876 26.9888 14.9807 26.8004C15.0738 26.612 15.2291 26.4616 15.4204 26.3746L21.5962 23.6419C21.8131 23.5599 22.0531 23.5636 22.2673 23.6524C22.4815 23.7412 22.6538 23.9083 22.749 24.1197C22.8443 24.3311 22.8553 24.5709 22.7799 24.7901C22.7045 25.0094 22.5483 25.1917 22.3432 25.2997L16.1673 28.0324C16.0585 28.0822 15.9408 28.1101 15.8212 28.1144Z" fill="#636363"/>
<path d="M18.0532 33.0968C17.8455 33.0959 17.6444 33.024 17.4832 32.8931C17.322 32.7622 17.2104 32.5802 17.1668 32.3771C17.1232 32.1741 17.1503 31.9622 17.2436 31.7767C17.3369 31.5912 17.4908 31.4431 17.6797 31.357L19.7657 30.4461C19.9825 30.3641 20.2225 30.3678 20.4367 30.4566C20.6509 30.5454 20.8232 30.7125 20.9184 30.9239C21.0137 31.1353 21.0247 31.3751 20.9493 31.5943C20.8739 31.8136 20.7177 31.9958 20.5126 32.1039L18.4267 33.0148C18.3094 33.0683 18.1821 33.0962 18.0532 33.0968Z" fill="#636363"/>
<path d="M47.3015 43.2532C47.2232 43.267 47.1431 43.267 47.0647 43.2532C46.8335 43.1893 46.6369 43.0367 46.5175 42.8286C46.3981 42.6206 46.3656 42.3738 46.4271 42.1419L53.5867 16.0266C53.68 15.6795 53.7039 15.3174 53.657 14.961C53.6101 14.6046 53.4933 14.261 53.3134 13.9498C53.1395 13.6365 52.9036 13.3619 52.6202 13.1427C52.3367 12.9235 52.0117 12.7642 51.6647 12.6745L30.5867 6.89038C29.8899 6.7094 29.1498 6.81071 28.5272 7.17229C27.9047 7.53388 27.45 8.12653 27.2619 8.82147L19.7653 36.0481C19.6706 36.3946 19.6452 36.7564 19.6906 37.1128C19.7359 37.4691 19.851 37.8131 20.0294 38.1249C20.3871 38.7546 20.9801 39.2165 21.6781 39.4092L29.193 41.4314C29.4346 41.4942 29.6413 41.6505 29.7677 41.8657C29.8941 42.0809 29.9299 42.3376 29.8671 42.5792C29.8043 42.8207 29.648 43.0275 29.4328 43.1539C29.2176 43.2803 28.9609 43.316 28.7193 43.2532L21.2045 41.1582C20.0483 40.8355 19.0662 40.0695 18.4718 39.0267C18.1744 38.5086 17.9834 37.9365 17.9099 37.3437C17.8364 36.7509 17.8818 36.1494 18.0437 35.5744L25.4401 8.3387C25.5973 7.76147 25.8667 7.22086 26.2329 6.74776C26.599 6.27467 27.0548 5.87834 27.5742 5.58144C28.0936 5.28453 28.6664 5.09285 29.2598 5.01736C29.8533 4.94187 30.4558 4.98404 31.033 5.14147L52.1384 10.9165C53.3021 11.2341 54.2924 12.0004 54.8918 13.0472C55.4912 14.094 55.6508 15.3359 55.3356 16.5003L48.2124 42.5792C48.1591 42.7779 48.04 42.9527 47.8746 43.0751C47.7092 43.1975 47.5072 43.2603 47.3015 43.2532Z" fill="#78BEC1"/>
<path d="M44.0774 17.1654C43.9956 17.1744 43.9132 17.1744 43.8314 17.1654L35.9249 15.0157C35.6833 14.9565 35.4751 14.8038 35.3461 14.5911C35.2172 14.3784 35.178 14.1232 35.2371 13.8817C35.2963 13.6401 35.4491 13.4319 35.6617 13.3029C35.8744 13.174 36.1296 13.1347 36.3712 13.1939L44.2778 15.3619C44.3974 15.3774 44.5128 15.4164 44.6173 15.4765C44.7219 15.5367 44.8136 15.6168 44.8872 15.7124C44.9608 15.808 45.0148 15.9171 45.0462 16.0336C45.0776 16.15 45.0858 16.2715 45.0702 16.3912C45.0547 16.5108 45.0157 16.6262 44.9556 16.7307C44.8954 16.8353 44.8153 16.927 44.7197 17.0006C44.6241 17.0742 44.515 17.1282 44.3985 17.1596C44.2821 17.191 44.1605 17.1992 44.0409 17.1836L44.0774 17.1654Z" fill="#636363"/>
<path d="M45.2705 23.1591C45.1888 23.1681 45.1063 23.1681 45.0246 23.1591L31.8166 19.5702C31.575 19.5026 31.3702 19.3417 31.2472 19.1231C31.1242 18.9044 31.0931 18.6458 31.1608 18.4043C31.2284 18.1627 31.3893 17.9579 31.6079 17.8349C31.8266 17.7119 32.0851 17.6808 32.3267 17.7484L45.48 21.392C45.7216 21.4234 45.9408 21.5495 46.0894 21.7425C46.238 21.9355 46.3039 22.1797 46.2725 22.4213C46.2411 22.6629 46.115 22.8821 45.922 23.0307C45.7289 23.1793 45.4848 23.2452 45.2432 23.2138L45.2705 23.1591Z" fill="#636363"/>
<path d="M43.822 28.4329C43.7436 28.4461 43.6635 28.4461 43.5851 28.4329L30.4045 24.7893C30.284 24.7615 30.1704 24.7096 30.0707 24.6365C29.9709 24.5634 29.8871 24.4708 29.8242 24.3643C29.7614 24.2577 29.721 24.1396 29.7053 24.0169C29.6897 23.8942 29.6992 23.7697 29.7332 23.6508C29.7673 23.5319 29.8252 23.4212 29.9034 23.3254C29.9816 23.2296 30.0785 23.1508 30.1882 23.0937C30.2979 23.0366 30.4181 23.0024 30.5414 22.9932C30.6647 22.9841 30.7886 23.0001 30.9055 23.0404L44.0861 26.6839C44.3173 26.7479 44.514 26.9005 44.6333 27.1085C44.7527 27.3166 44.7852 27.5634 44.7238 27.7952C44.664 27.9856 44.5434 28.1511 44.3805 28.2663C44.2176 28.3815 44.0214 28.44 43.822 28.4329Z" fill="#636363"/>
<path d="M42.3829 33.7071C42.3014 33.7203 42.2184 33.7203 42.1369 33.7071L28.9563 30.0635C28.7232 29.9995 28.525 29.8455 28.4054 29.6354C28.2859 29.4253 28.2547 29.1762 28.3187 28.9431C28.3827 28.71 28.5367 28.5118 28.7468 28.3923C28.9569 28.2727 29.2059 28.2415 29.4391 28.3055L42.6197 31.9491C42.7352 31.9807 42.8433 32.0348 42.9379 32.1082C43.0324 32.1816 43.1116 32.273 43.1708 32.3771C43.23 32.4811 43.2681 32.5958 43.283 32.7147C43.2978 32.8335 43.2891 32.954 43.2573 33.0695C43.1989 33.2553 43.0824 33.4175 42.9251 33.5322C42.7677 33.647 42.5776 33.7083 42.3829 33.7071Z" fill="#636363"/>
</svg>
